^C:\USERS\SBK\DESKTOP\TEST\TEST\TEST\DEBUG\BPLUS_TREE.OBJ|C:\USERS\SBK\DESKTOP\TEST\TEST\TEST\DEBUG\MAIN.OBJ
C:\USERS\SBK\DESKTOP\TEST\TEST\DEBUG\TEST.ILK
C:\USERS\SBK\DESKTOP\TEST\TEST\DEBUG\TEST.EXE
C:\USERS\SBK\DESKTOP\TEST\TEST\DEBUG\TEST.PDB
